     diagonalizing the dynamical matrix ...

 q =       0.0000      0.0000      0.0000
 **************************************************************************
     freq (    1) =      -0.000000 [THz] =      -0.000001 [cm-1]
 (  0.156786   0.000000     0.412637   0.000000     0.071753   0.000000   )
 (  0.156786   0.000000     0.412637   0.000000     0.071753   0.000000   )
 (  0.156786   0.000000     0.412637   0.000000     0.071753   0.000000   )
 (  0.156786   0.000000     0.412637   0.000000     0.071753   0.000000   )
 (  0.156786   0.000000     0.412637   0.000000     0.071753   0.000000   )
     freq (    2) =      -0.000000 [THz] =      -0.000001 [cm-1]
 (  0.029556   0.000000     0.065524   0.000000    -0.441399   0.000000   )
 (  0.029556   0.000000     0.065524   0.000000    -0.441399   0.000000   )
 (  0.029556   0.000000     0.065524   0.000000    -0.441399   0.000000   )
 (  0.029556   0.000000     0.065524   0.000000    -0.441399   0.000000   )
 (  0.029556   0.000000     0.065524   0.000000    -0.441399   0.000000   )
     freq (    3) =       0.000000 [THz] =       0.000001 [cm-1]
 (  0.417785   0.000000    -0.159490   0.000000     0.004299   0.000000   )
 (  0.417785   0.000000    -0.159490   0.000000     0.004299   0.000000   )
 (  0.417785   0.000000    -0.159490   0.000000     0.004299   0.000000   )
 (  0.417785   0.000000    -0.159490   0.000000     0.004299   0.000000   )
 (  0.417785   0.000000    -0.159490   0.000000     0.004299   0.000000   )
     freq (    4) =       0.307876 [THz] =      10.269651 [cm-1]
 (  0.009107   0.000000     0.006858   0.000000    -0.877820   0.000000   )
 ( -0.001658   0.000000    -0.001249   0.000000     0.159829   0.000000   )
 ( -0.001996   0.000000    -0.002256   0.000000     0.288694   0.000000   )
 ( -0.002995   0.000000    -0.002256   0.000000     0.192432   0.000000   )
 ( -0.002995   0.000000    -0.001503   0.000000     0.288694   0.000000   )
     freq (    5) =       0.307876 [THz] =      10.269651 [cm-1]
 ( -0.809017   0.000000     0.340817  -0.000000    -0.005731   0.000000   )
 (  0.147302  -0.000000    -0.062054   0.000000     0.001043  -0.000000   )
 (  0.177350  -0.000000    -0.112087   0.000000     0.001885  -0.000000   )
 (  0.266067  -0.000000    -0.112087   0.000000     0.001256  -0.000000   )
 (  0.266067  -0.000000    -0.074713   0.000000     0.001885  -0.000000   )
     freq (    6) =       0.307876 [THz] =      10.269651 [cm-1]
 (  0.340743   0.000000     0.809008   0.000000     0.009856   0.000000   )
 ( -0.062041   0.000000    -0.147300   0.000000    -0.001794   0.000000   )
 ( -0.074696   0.000000    -0.266064   0.000000    -0.003241   0.000000   )
 ( -0.112062   0.000000    -0.266064   0.000000    -0.002161   0.000000   )
 ( -0.112062   0.000000    -0.177348   0.000000    -0.003241   0.000000   )
     freq (    7) =       0.682345 [THz] =      22.760571 [cm-1]
 ( -0.000000   0.000000     0.000000   0.000000    -0.000000   0.000000   )
 ( -0.000000   0.000000    -0.000000   0.000000     0.000000   0.000000   )
 ( -0.000000   0.000000     0.222471   0.000000    -0.063908   0.000000   )
 ( -0.668148   0.000000    -0.222471   0.000000     0.000000   0.000000   )
 (  0.668148   0.000000    -0.000000   0.000000     0.063908   0.000000   )
     freq (    8) =       0.682345 [THz] =      22.760571 [cm-1]
 (  0.000000  -0.000000    -0.000000   0.000000     0.000000  -0.000000   )
 ( -0.000000   0.000000    -0.000000   0.000000     0.000000  -0.000000   )
 ( -0.000000   0.000000    -0.671198   0.000000    -0.020839   0.000000   )
 ( -0.221493   0.000000     0.671198  -0.000000     0.000000  -0.000000   )
 (  0.221493  -0.000000    -0.000000   0.000000     0.020839  -0.000000   )
     freq (    9) =       0.682345 [THz] =      22.760571 [cm-1]
 (  0.000000   0.000000    -0.000000   0.000000    -0.000000   0.000000   )
 ( -0.000000   0.000000     0.000000   0.000000     0.000000   0.000000   )
 ( -0.000000   0.000000    -0.000327   0.000000    -0.703904   0.000000   )
 (  0.067219   0.000000     0.000327   0.000000     0.000000   0.000000   )
 ( -0.067219   0.000000     0.000000   0.000000     0.703904   0.000000   )
     freq (   10) =       1.312878 [THz] =      43.792886 [cm-1]
 (  0.093279   0.000000    -0.020179   0.000000    -0.000900   0.000000   )
 ( -0.648231   0.000000     0.140231   0.000000     0.006256   0.000000   )
 ( -0.372073   0.000000    -0.095267   0.000000    -0.004250   0.000000   )
 (  0.440378   0.000000    -0.095267   0.000000     0.003591   0.000000   )
 (  0.440378   0.000000     0.080490   0.000000    -0.004250   0.000000   )
     freq (   11) =       1.312878 [THz] =      43.792886 [cm-1]
 (  0.020194   0.000000     0.093258   0.000000     0.002035   0.000000   )
 ( -0.140336   0.000000    -0.648084   0.000000    -0.014143   0.000000   )
 ( -0.080550   0.000000     0.440279   0.000000     0.009608   0.000000   )
 (  0.095338   0.000000     0.440279   0.000000    -0.008118   0.000000   )
 (  0.095338   0.000000    -0.371989   0.000000     0.009608   0.000000   )
     freq (   12) =       1.312878 [THz] =      43.792886 [cm-1]
 (  0.000449   0.000000    -0.002180   0.000000     0.095415   0.000000   )
 ( -0.003123   0.000000     0.015146   0.000000    -0.663075   0.000000   )
 ( -0.001792   0.000000    -0.010290   0.000000     0.450462   0.000000   )
 (  0.002121   0.000000    -0.010290   0.000000    -0.380593   0.000000   )
 (  0.002121   0.000000     0.008694   0.000000     0.450462   0.000000   )
     freq (   13) =       2.405353 [THz] =      80.233949 [cm-1]
 (  0.000000   0.000000     0.000024   0.000000    -0.000052   0.000000   )
 (  0.000623   0.000000     0.254649   0.000000    -0.562671   0.000000   )
 ( -0.000781   0.000000     0.040477   0.000000    -0.089437   0.000000   )
 (  0.000099   0.000000     0.040477   0.000000     0.705267   0.000000   )
 (  0.000099   0.000000    -0.319184   0.000000    -0.089437   0.000000   )
     freq (   14) =       2.405353 [THz] =      80.233949 [cm-1]
 ( -0.000000   0.000000    -0.000052   0.000000    -0.000024   0.000000   )
 ( -0.001376   0.000000    -0.562669   0.000000    -0.254650   0.000000   )
 (  0.001725  -0.000000    -0.089437   0.000000    -0.040477   0.000000   )
 ( -0.000219   0.000000    -0.089437   0.000000     0.319185  -0.000000   )
 ( -0.000219   0.000000     0.705265  -0.000000    -0.040477   0.000000   )
     freq (   15) =       2.405353 [THz] =      80.233949 [cm-1]
 (  0.000057   0.000000    -0.000000   0.000000     0.000000   0.000000   )
 (  0.617610   0.000000    -0.001511   0.000000    -0.000000   0.000000   )
 ( -0.774130   0.000000    -0.000240   0.000000     0.000000   0.000000   )
 (  0.098170   0.000000    -0.000240   0.000000     0.000000   0.000000   )
 (  0.098170   0.000000     0.001894   0.000000    -0.000000   0.000000   )
 **************************************************************************
