
     Program PWSCF v.7.3.1 starts on 18Jun2024 at 10: 6:35 

     This program is part of the open-source Quantum ESPRESSO suite
     for quantum simulation of materials; please cite
         "P. Giannozzi et al., J. Phys.:Condens. Matter 21 395502 (2009);
         "P. Giannozzi et al., J. Phys.:Condens. Matter 29 465901 (2017);
         "P. Giannozzi et al., J. Chem. Phys. 152 154105 (2020);
          URL http://www.quantum-espresso.org", 
     in publications or presentations arising from this work. More details at
     http://www.quantum-espresso.org/quote

     Parallel version (MPI & OpenMP), running on       8 processor cores
     Number of MPI processes:                 8
     Threads/MPI process:                     1

     MPI processes distributed on     1 nodes
     182861 MiB available memory on the printing compute node when the environment starts
 
     Waiting for input...
     Reading input from standard input

     Current dimensions of program PWSCF are:
     Max number of different atomic species (ntypx) = 10
     Max number of k-points (npk) =  40000
     Max angular momentum in pseudopotentials (lmaxx) =  4
     file C.pbe-rrkjus.UPF: wavefunction(s)  2S 2P renormalized
 
     R & G space division:  proc/nbgrp/npool/nimage =       8
     Subspace diagonalization in iterative solution of the eigenvalue problem:
     a serial algorithm will be used

 
     Parallelization info
     --------------------
     sticks:   dense  smooth     PW     G-vecs:    dense   smooth      PW
     Min          37      15      4                 1563      389      74
     Max          38      16      5                 1570      398      85
     Sum         301     121     37                12531     3147     647
 
     Using Slab Decomposition
 


     bravais-lattice index     =            4
     lattice parameter (alat)  =       4.6540  a.u.
     unit-cell volume          =     261.8973 (a.u.)^3
     number of atoms/cell      =            2
     number of atomic types    =            1
     number of electrons       =         8.00
     number of Kohn-Sham states=            4
     kinetic-energy cutoff     =      20.0000  Ry
     charge density cutoff     =     200.0000  Ry
     scf convergence threshold =      1.0E-08
     mixing beta               =       0.7000
     number of iterations used =            8  plain     mixing
     Exchange-correlation= SLA  PW   PBE  PBE
                           (   1   4   3   4   0   0   0)

     celldm(1)=   4.654000  celldm(2)=   0.000000  celldm(3)=   3.000000
     celldm(4)=   0.000000  celldm(5)=   0.000000  celldm(6)=   0.000000

     crystal axes: (cart. coord. in units of alat)
               a(1) = (   1.000000   0.000000   0.000000 )  
               a(2) = (  -0.500000   0.866025   0.000000 )  
               a(3) = (   0.000000   0.000000   3.000000 )  

     reciprocal axes: (cart. coord. in units 2 pi/alat)
               b(1) = (  1.000000  0.577350  0.000000 )  
               b(2) = (  0.000000  1.154701  0.000000 )  
               b(3) = (  0.000000  0.000000  0.333333 )  


     PseudoPot. # 1 for C  read from file:
     ../installation_21/qe-7.3.1/pseudo/C.pbe-rrkjus.UPF
     MD5 check sum: c9ac5a99bc85b198593446162950cd17
     Pseudo is Ultrasoft, Zval =  4.0
     Generated by new atomic code, or converted to UPF format
     Using radial grid of  627 points,  4 beta functions with: 
                l(1) =   0
                l(2) =   0
                l(3) =   1
                l(4) =   1
     Q(r) pseudized with 0 coefficients 


     atomic species   valence    mass     pseudopotential
     C                 4.00    12.01070     C ( 1.00)

     24 Sym. Ops., with inversion, found (12 have fractional translation)



   Cartesian axes

     site n.     atom                  positions (alat units)
         1        C      tau(   1) = (   0.0000000   0.0000000   0.0000000  )
         2        C      tau(   2) = (   0.0000000   0.5773503   0.0000000  )

     number of k points=    12
                       cart. coord. in units 2pi/alat
        k(    1) = (   0.0000000   0.0000000   0.0000000), wk =   0.0246914
        k(    2) = (   0.0000000   0.1283001   0.0000000), wk =   0.1481481
        k(    3) = (   0.0000000   0.2566001   0.0000000), wk =   0.1481481
        k(    4) = (   0.0000000   0.3849002   0.0000000), wk =   0.1481481
        k(    5) = (   0.0000000   0.5132002   0.0000000), wk =   0.1481481
        k(    6) = (   0.1111111   0.1924501   0.0000000), wk =   0.1481481
        k(    7) = (   0.1111111   0.3207501   0.0000000), wk =   0.2962963
        k(    8) = (   0.1111111   0.4490502   0.0000000), wk =   0.2962963
        k(    9) = (   0.1111111   0.5773503   0.0000000), wk =   0.1481481
        k(   10) = (   0.2222222   0.3849002   0.0000000), wk =   0.1481481
        k(   11) = (   0.2222222   0.5132002   0.0000000), wk =   0.2962963
        k(   12) = (   0.3333333   0.5773503   0.0000000), wk =   0.0493827

     Dense  grid:    12531 G-vectors     FFT dimensions: (  24,  24,  64)

     Smooth grid:     3147 G-vectors     FFT dimensions: (  15,  15,  40)

     Estimated max dynamical RAM per process >       2.41 MB

     Estimated total dynamical RAM >      19.31 MB

     Initial potential from superposition of free atoms

     starting charge       7.9999, renormalised to       8.0000
     Starting wfcs are    8 randomized atomic wfcs

     total cpu time spent up to now is        0.7 secs

     Self-consistent Calculation

     iteration #  1     ecut=    20.00 Ry     beta= 0.70
     Davidson diagonalization with overlap
     ethr =  1.00E-02,  avg # of iterations =  2.0

     negative rho (up, down):  1.063E-07 0.000E+00

     total cpu time spent up to now is        0.7 secs

     total energy              =     -22.74062759 Ry
     estimated scf accuracy    <       0.18897821 Ry

     iteration #  2     ecut=    20.00 Ry     beta= 0.70
     Davidson diagonalization with overlap
     ethr =  2.36E-03,  avg # of iterations =  2.0

     negative rho (up, down):  8.293E-07 0.000E+00

     total cpu time spent up to now is        0.8 secs

     total energy              =     -22.76494808 Ry
     estimated scf accuracy    <       0.00240678 Ry

     iteration #  3     ecut=    20.00 Ry     beta= 0.70
     Davidson diagonalization with overlap
     ethr =  3.01E-05,  avg # of iterations =  1.9

     negative rho (up, down):  3.911E-06 0.000E+00

     total cpu time spent up to now is        0.8 secs

     total energy              =     -22.76523508 Ry
     estimated scf accuracy    <       0.00014250 Ry

     iteration #  4     ecut=    20.00 Ry     beta= 0.70
     Davidson diagonalization with overlap
     ethr =  1.78E-06,  avg # of iterations =  2.4

     negative rho (up, down):  3.498E-06 0.000E+00

     total cpu time spent up to now is        0.8 secs

     total energy              =     -22.76526093 Ry
     estimated scf accuracy    <       0.00000053 Ry

     iteration #  5     ecut=    20.00 Ry     beta= 0.70
     Davidson diagonalization with overlap
     ethr =  6.67E-09,  avg # of iterations =  4.4

     negative rho (up, down):  3.249E-06 0.000E+00

     total cpu time spent up to now is        0.8 secs

     total energy              =     -22.76526243 Ry
     estimated scf accuracy    <       0.00000005 Ry

     iteration #  6     ecut=    20.00 Ry     beta= 0.70
     Davidson diagonalization with overlap
     ethr =  6.58E-10,  avg # of iterations =  1.8

     negative rho (up, down):  3.199E-06 0.000E+00

     total cpu time spent up to now is        0.8 secs

     End of self-consistent calculation

          k = 0.0000 0.0000 0.0000 (   397 PWs)   bands (ev):

   -18.6679  -6.7212  -2.1511  -2.1511

          k = 0.0000 0.1283 0.0000 (   399 PWs)   bands (ev):

   -18.3764  -6.3802  -3.2768  -2.7260

          k = 0.0000 0.2566 0.0000 (   394 PWs)   bands (ev):

   -17.5059  -5.8246  -5.3525  -3.8887

          k = 0.0000 0.3849 0.0000 (   398 PWs)   bands (ev):

   -16.0800  -8.7588  -4.9209  -3.7274

          k = 0.0000 0.5132 0.0000 (   396 PWs)   bands (ev):

   -14.1735 -11.5155  -5.4831  -1.8710

          k = 0.1111 0.1925 0.0000 (   409 PWs)   bands (ev):

   -17.7958  -5.6975  -4.8365  -3.8916

          k = 0.1111 0.3208 0.0000 (   398 PWs)   bands (ev):

   -16.6472  -7.2877  -5.2680  -4.3580

          k = 0.1111 0.4491 0.0000 (   389 PWs)   bands (ev):

   -14.9679 -10.0510  -6.1384  -2.5204

          k = 0.1111 0.5774 0.0000 (   386 PWs)   bands (ev):

   -13.2290 -12.1943  -6.4421  -1.1764

          k = 0.2222 0.3849 0.0000 (   395 PWs)   bands (ev):

   -15.2442  -8.8117  -7.2828  -2.7718

          k = 0.2222 0.5132 0.0000 (   394 PWs)   bands (ev):

   -13.3939 -10.9231  -8.2822  -0.8916

          k = 0.3333 0.5774 0.0000 (   381 PWs)   bands (ev):

   -11.7300 -11.7300  -9.6761   0.9204

     highest occupied level (ev):     0.9204

!    total energy              =     -22.76526244 Ry
     estimated scf accuracy    <          5.7E-10 Ry

     The total energy is the sum of the following terms:
     one-electron contribution =     -56.38967082 Ry
     hartree contribution      =      30.33218182 Ry
     xc contribution           =      -7.01842298 Ry
     ewald contribution        =      10.31064953 Ry

     convergence has been achieved in   6 iterations

     Writing all to output data dir ./Graphene_1x1_PBE.save/ :
     XML data file, charge density, pseudopotentials, collected wavefunctions
 
     init_run     :      0.02s CPU      0.27s WALL (       1 calls)
     electrons    :      0.11s CPU      0.16s WALL (       1 calls)

     Called by init_run:
     wfcinit      :      0.01s CPU      0.14s WALL (       1 calls)
     potinit      :      0.00s CPU      0.05s WALL (       1 calls)
     hinit0       :      0.01s CPU      0.05s WALL (       1 calls)

     Called by electrons:
     c_bands      :      0.07s CPU      0.08s WALL (       6 calls)
     sum_band     :      0.02s CPU      0.02s WALL (       6 calls)
     v_of_rho     :      0.01s CPU      0.01s WALL (       7 calls)
     newd         :      0.01s CPU      0.01s WALL (       7 calls)
     mix_rho      :      0.00s CPU      0.02s WALL (       6 calls)

     Called by c_bands:
     init_us_2    :      0.00s CPU      0.00s WALL (     156 calls)
     cegterg      :      0.07s CPU      0.07s WALL (      72 calls)

     Called by *egterg:
     cdiaghg      :      0.01s CPU      0.08s WALL (     247 calls)
     h_psi        :      0.05s CPU      0.11s WALL (     259 calls)
     s_psi        :      0.00s CPU      0.00s WALL (     259 calls)
     g_psi        :      0.00s CPU      0.00s WALL (     175 calls)

     Called by h_psi:
     h_psi:calbec :      0.00s CPU      0.06s WALL (     259 calls)
     vloc_psi     :      0.05s CPU      0.05s WALL (     259 calls)
     add_vuspsi   :      0.00s CPU      0.00s WALL (     259 calls)

     General routines
     calbec       :      0.00s CPU      0.06s WALL (     331 calls)
     fft          :      0.00s CPU      0.03s WALL (      88 calls)
     ffts         :      0.00s CPU      0.05s WALL (      13 calls)
     fftw         :      0.05s CPU      0.05s WALL (    2126 calls)
     interpolate  :      0.00s CPU      0.05s WALL (       7 calls)
 
     Parallel routines
 
     PWSCF        :      0.16s CPU      0.90s WALL

 
   This run was terminated on:  10: 6:36  18Jun2024            

=------------------------------------------------------------------------------=
   JOB DONE.
=------------------------------------------------------------------------------=
