%!PS-Adobe-2.0 EPSF-2.0
%%Title: phonon_dispersion.eps
%%Creator: gnuplot 5.4 patchlevel 2
%%CreationDate: Wed Jun 19 16:32:49 2024
%%DocumentFonts: (atend)
%%BoundingBox: 50 50 410 302
%%EndComments
%%BeginProlog
/gnudict 256 dict def
gnudict begin
%
% The following true/false flags may be edited by hand if desired.
% The unit line width and grayscale image gamma correction may also be changed.
%
/Color true def
/Blacktext false def
/Solid false def
/Dashlength 1 def
/Landscape false def
/Level1 false def
/Level3 false def
/Rounded false def
/ClipToBoundingBox false def
/SuppressPDFMark false def
/TransparentPatterns false def
/gnulinewidth 5.000 def
/userlinewidth gnulinewidth def
/Gamma 1.0 def
/BackgroundColor {-1.000 -1.000 -1.000} def
%
/vshift -66 def
/dl1 {
  10.0 Dashlength userlinewidth gnulinewidth div mul mul mul
  Rounded { currentlinewidth 0.75 mul sub dup 0 le { pop 0.01 } if } if
} def
/dl2 {
  10.0 Dashlength userlinewidth gnulinewidth div mul mul mul
  Rounded { currentlinewidth 0.75 mul add } if
} def
/hpt_ 31.5 def
/vpt_ 31.5 def
/hpt hpt_ def
/vpt vpt_ def
/doclip {
  ClipToBoundingBox {
    newpath 50 50 moveto 410 50 lineto 410 302 lineto 50 302 lineto closepath
    clip
  } if
} def
%
% Gnuplot Prolog Version 5.2 (Dec 2017)
%
%/SuppressPDFMark true def
%
/M {moveto} bind def
/L {lineto} bind def
/R {rmoveto} bind def
/V {rlineto} bind def
/N {newpath moveto} bind def
/Z {closepath} bind def
/C {setrgbcolor} bind def
/f {rlineto fill} bind def
/g {setgray} bind def
/Gshow {show} def   % May be redefined later in the file to support UTF-8
/vpt2 vpt 2 mul def
/hpt2 hpt 2 mul def
/Lshow {currentpoint stroke M 0 vshift R 
	Blacktext {gsave 0 setgray textshow grestore} {textshow} ifelse} def
/Rshow {currentpoint stroke M dup stringwidth pop neg vshift R
	Blacktext {gsave 0 setgray textshow grestore} {textshow} ifelse} def
/Cshow {currentpoint stroke M dup stringwidth pop -2 div vshift R 
	Blacktext {gsave 0 setgray textshow grestore} {textshow} ifelse} def
/UP {dup vpt_ mul /vpt exch def hpt_ mul /hpt exch def
  /hpt2 hpt 2 mul def /vpt2 vpt 2 mul def} def
/DL {Color {setrgbcolor Solid {pop []} if 0 setdash}
 {pop pop pop 0 setgray Solid {pop []} if 0 setdash} ifelse} def
/BL {stroke userlinewidth 2 mul setlinewidth
	Rounded {1 setlinejoin 1 setlinecap} if} def
/AL {stroke userlinewidth 2 div setlinewidth
	Rounded {1 setlinejoin 1 setlinecap} if} def
/UL {dup gnulinewidth mul /userlinewidth exch def
	dup 1 lt {pop 1} if 10 mul /udl exch def} def
/PL {stroke userlinewidth setlinewidth
	Rounded {1 setlinejoin 1 setlinecap} if} def
3.8 setmiterlimit
% Classic Line colors (version 5.0)
/LCw {1 1 1} def
/LCb {0 0 0} def
/LCa {0 0 0} def
/LC0 {1 0 0} def
/LC1 {0 1 0} def
/LC2 {0 0 1} def
/LC3 {1 0 1} def
/LC4 {0 1 1} def
/LC5 {1 1 0} def
/LC6 {0 0 0} def
/LC7 {1 0.3 0} def
/LC8 {0.5 0.5 0.5} def
% Default dash patterns (version 5.0)
/LTB {BL [] LCb DL} def
/LTw {PL [] 1 setgray} def
/LTb {PL [] LCb DL} def
/LTa {AL [1 udl mul 2 udl mul] 0 setdash LCa setrgbcolor} def
/LT0 {PL [] LC0 DL} def
/LT1 {PL [2 dl1 3 dl2] LC1 DL} def
/LT2 {PL [1 dl1 1.5 dl2] LC2 DL} def
/LT3 {PL [6 dl1 2 dl2 1 dl1 2 dl2] LC3 DL} def
/LT4 {PL [1 dl1 2 dl2 6 dl1 2 dl2 1 dl1 2 dl2] LC4 DL} def
/LT5 {PL [4 dl1 2 dl2] LC5 DL} def
/LT6 {PL [1.5 dl1 1.5 dl2 1.5 dl1 1.5 dl2 1.5 dl1 6 dl2] LC6 DL} def
/LT7 {PL [3 dl1 3 dl2 1 dl1 3 dl2] LC7 DL} def
/LT8 {PL [2 dl1 2 dl2 2 dl1 6 dl2] LC8 DL} def
/SL {[] 0 setdash} def
/Pnt {stroke [] 0 setdash gsave 1 setlinecap M 0 0 V stroke grestore} def
/Dia {stroke [] 0 setdash 2 copy vpt add M
  hpt neg vpt neg V hpt vpt neg V
  hpt vpt V hpt neg vpt V closepath stroke
  Pnt} def
/Pls {stroke [] 0 setdash vpt sub M 0 vpt2 V
  currentpoint stroke M
  hpt neg vpt neg R hpt2 0 V stroke
 } def
/Box {stroke [] 0 setdash 2 copy exch hpt sub exch vpt add M
  0 vpt2 neg V hpt2 0 V 0 vpt2 V
  hpt2 neg 0 V closepath stroke
  Pnt} def
/Crs {stroke [] 0 setdash exch hpt sub exch vpt add M
  hpt2 vpt2 neg V currentpoint stroke M
  hpt2 neg 0 R hpt2 vpt2 V stroke} def
/TriU {stroke [] 0 setdash 2 copy vpt 1.12 mul add M
  hpt neg vpt -1.62 mul V
  hpt 2 mul 0 V
  hpt neg vpt 1.62 mul V closepath stroke
  Pnt} def
/Star {2 copy Pls Crs} def
/BoxF {stroke [] 0 setdash exch hpt sub exch vpt add M
  0 vpt2 neg V hpt2 0 V 0 vpt2 V
  hpt2 neg 0 V closepath fill} def
/TriUF {stroke [] 0 setdash vpt 1.12 mul add M
  hpt neg vpt -1.62 mul V
  hpt 2 mul 0 V
  hpt neg vpt 1.62 mul V closepath fill} def
/TriD {stroke [] 0 setdash 2 copy vpt 1.12 mul sub M
  hpt neg vpt 1.62 mul V
  hpt 2 mul 0 V
  hpt neg vpt -1.62 mul V closepath stroke
  Pnt} def
/TriDF {stroke [] 0 setdash vpt 1.12 mul sub M
  hpt neg vpt 1.62 mul V
  hpt 2 mul 0 V
  hpt neg vpt -1.62 mul V closepath fill} def
/DiaF {stroke [] 0 setdash vpt add M
  hpt neg vpt neg V hpt vpt neg V
  hpt vpt V hpt neg vpt V closepath fill} def
/Pent {stroke [] 0 setdash 2 copy gsave
  translate 0 hpt M 4 {72 rotate 0 hpt L} repeat
  closepath stroke grestore Pnt} def
/PentF {stroke [] 0 setdash gsave
  translate 0 hpt M 4 {72 rotate 0 hpt L} repeat
  closepath fill grestore} def
/Circle {stroke [] 0 setdash 2 copy
  hpt 0 360 arc stroke Pnt} def
/CircleF {stroke [] 0 setdash hpt 0 360 arc fill} def
/C0 {BL [] 0 setdash 2 copy moveto vpt 90 450 arc} bind def
/C1 {BL [] 0 setdash 2 copy moveto
	2 copy vpt 0 90 arc closepath fill
	vpt 0 360 arc closepath} bind def
/C2 {BL [] 0 setdash 2 copy moveto
	2 copy vpt 90 180 arc closepath fill
	vpt 0 360 arc closepath} bind def
/C3 {BL [] 0 setdash 2 copy moveto
	2 copy vpt 0 180 arc closepath fill
	vpt 0 360 arc closepath} bind def
/C4 {BL [] 0 setdash 2 copy moveto
	2 copy vpt 180 270 arc closepath fill
	vpt 0 360 arc closepath} bind def
/C5 {BL [] 0 setdash 2 copy moveto
	2 copy vpt 0 90 arc
	2 copy moveto
	2 copy vpt 180 270 arc closepath fill
	vpt 0 360 arc} bind def
/C6 {BL [] 0 setdash 2 copy moveto
	2 copy vpt 90 270 arc closepath fill
	vpt 0 360 arc closepath} bind def
/C7 {BL [] 0 setdash 2 copy moveto
	2 copy vpt 0 270 arc closepath fill
	vpt 0 360 arc closepath} bind def
/C8 {BL [] 0 setdash 2 copy moveto
	2 copy vpt 270 360 arc closepath fill
	vpt 0 360 arc closepath} bind def
/C9 {BL [] 0 setdash 2 copy moveto
	2 copy vpt 270 450 arc closepath fill
	vpt 0 360 arc closepath} bind def
/C10 {BL [] 0 setdash 2 copy 2 copy moveto vpt 270 360 arc closepath fill
	2 copy moveto
	2 copy vpt 90 180 arc closepath fill
	vpt 0 360 arc closepath} bind def
/C11 {BL [] 0 setdash 2 copy moveto
	2 copy vpt 0 180 arc closepath fill
	2 copy moveto
	2 copy vpt 270 360 arc closepath fill
	vpt 0 360 arc closepath} bind def
/C12 {BL [] 0 setdash 2 copy moveto
	2 copy vpt 180 360 arc closepath fill
	vpt 0 360 arc closepath} bind def
/C13 {BL [] 0 setdash 2 copy moveto
	2 copy vpt 0 90 arc closepath fill
	2 copy moveto
	2 copy vpt 180 360 arc closepath fill
	vpt 0 360 arc closepath} bind def
/C14 {BL [] 0 setdash 2 copy moveto
	2 copy vpt 90 360 arc closepath fill
	vpt 0 360 arc} bind def
/C15 {BL [] 0 setdash 2 copy vpt 0 360 arc closepath fill
	vpt 0 360 arc closepath} bind def
/Rec {newpath 4 2 roll moveto 1 index 0 rlineto 0 exch rlineto
	neg 0 rlineto closepath} bind def
/Square {dup Rec} bind def
/Bsquare {vpt sub exch vpt sub exch vpt2 Square} bind def
/S0 {BL [] 0 setdash 2 copy moveto 0 vpt rlineto BL Bsquare} bind def
/S1 {BL [] 0 setdash 2 copy vpt Square fill Bsquare} bind def
/S2 {BL [] 0 setdash 2 copy exch vpt sub exch vpt Square fill Bsquare} bind def
/S3 {BL [] 0 setdash 2 copy exch vpt sub exch vpt2 vpt Rec fill Bsquare} bind def
/S4 {BL [] 0 setdash 2 copy exch vpt sub exch vpt sub vpt Square fill Bsquare} bind def
/S5 {BL [] 0 setdash 2 copy 2 copy vpt Square fill
	exch vpt sub exch vpt sub vpt Square fill Bsquare} bind def
/S6 {BL [] 0 setdash 2 copy exch vpt sub exch vpt sub vpt vpt2 Rec fill Bsquare} bind def
/S7 {BL [] 0 setdash 2 copy exch vpt sub exch vpt sub vpt vpt2 Rec fill
	2 copy vpt Square fill Bsquare} bind def
/S8 {BL [] 0 setdash 2 copy vpt sub vpt Square fill Bsquare} bind def
/S9 {BL [] 0 setdash 2 copy vpt sub vpt vpt2 Rec fill Bsquare} bind def
/S10 {BL [] 0 setdash 2 copy vpt sub vpt Square fill 2 copy exch vpt sub exch vpt Square fill
	Bsquare} bind def
/S11 {BL [] 0 setdash 2 copy vpt sub vpt Square fill 2 copy exch vpt sub exch vpt2 vpt Rec fill
	Bsquare} bind def
/S12 {BL [] 0 setdash 2 copy exch vpt sub exch vpt sub vpt2 vpt Rec fill Bsquare} bind def
/S13 {BL [] 0 setdash 2 copy exch vpt sub exch vpt sub vpt2 vpt Rec fill
	2 copy vpt Square fill Bsquare} bind def
/S14 {BL [] 0 setdash 2 copy exch vpt sub exch vpt sub vpt2 vpt Rec fill
	2 copy exch vpt sub exch vpt Square fill Bsquare} bind def
/S15 {BL [] 0 setdash 2 copy Bsquare fill Bsquare} bind def
/D0 {gsave translate 45 rotate 0 0 S0 stroke grestore} bind def
/D1 {gsave translate 45 rotate 0 0 S1 stroke grestore} bind def
/D2 {gsave translate 45 rotate 0 0 S2 stroke grestore} bind def
/D3 {gsave translate 45 rotate 0 0 S3 stroke grestore} bind def
/D4 {gsave translate 45 rotate 0 0 S4 stroke grestore} bind def
/D5 {gsave translate 45 rotate 0 0 S5 stroke grestore} bind def
/D6 {gsave translate 45 rotate 0 0 S6 stroke grestore} bind def
/D7 {gsave translate 45 rotate 0 0 S7 stroke grestore} bind def
/D8 {gsave translate 45 rotate 0 0 S8 stroke grestore} bind def
/D9 {gsave translate 45 rotate 0 0 S9 stroke grestore} bind def
/D10 {gsave translate 45 rotate 0 0 S10 stroke grestore} bind def
/D11 {gsave translate 45 rotate 0 0 S11 stroke grestore} bind def
/D12 {gsave translate 45 rotate 0 0 S12 stroke grestore} bind def
/D13 {gsave translate 45 rotate 0 0 S13 stroke grestore} bind def
/D14 {gsave translate 45 rotate 0 0 S14 stroke grestore} bind def
/D15 {gsave translate 45 rotate 0 0 S15 stroke grestore} bind def
/DiaE {stroke [] 0 setdash vpt add M
  hpt neg vpt neg V hpt vpt neg V
  hpt vpt V hpt neg vpt V closepath stroke} def
/BoxE {stroke [] 0 setdash exch hpt sub exch vpt add M
  0 vpt2 neg V hpt2 0 V 0 vpt2 V
  hpt2 neg 0 V closepath stroke} def
/TriUE {stroke [] 0 setdash vpt 1.12 mul add M
  hpt neg vpt -1.62 mul V
  hpt 2 mul 0 V
  hpt neg vpt 1.62 mul V closepath stroke} def
/TriDE {stroke [] 0 setdash vpt 1.12 mul sub M
  hpt neg vpt 1.62 mul V
  hpt 2 mul 0 V
  hpt neg vpt -1.62 mul V closepath stroke} def
/PentE {stroke [] 0 setdash gsave
  translate 0 hpt M 4 {72 rotate 0 hpt L} repeat
  closepath stroke grestore} def
/CircE {stroke [] 0 setdash 
  hpt 0 360 arc stroke} def
/Opaque {gsave closepath 1 setgray fill grestore 0 setgray closepath} def
/DiaW {stroke [] 0 setdash vpt add M
  hpt neg vpt neg V hpt vpt neg V
  hpt vpt V hpt neg vpt V Opaque stroke} def
/BoxW {stroke [] 0 setdash exch hpt sub exch vpt add M
  0 vpt2 neg V hpt2 0 V 0 vpt2 V
  hpt2 neg 0 V Opaque stroke} def
/TriUW {stroke [] 0 setdash vpt 1.12 mul add M
  hpt neg vpt -1.62 mul V
  hpt 2 mul 0 V
  hpt neg vpt 1.62 mul V Opaque stroke} def
/TriDW {stroke [] 0 setdash vpt 1.12 mul sub M
  hpt neg vpt 1.62 mul V
  hpt 2 mul 0 V
  hpt neg vpt -1.62 mul V Opaque stroke} def
/PentW {stroke [] 0 setdash gsave
  translate 0 hpt M 4 {72 rotate 0 hpt L} repeat
  Opaque stroke grestore} def
/CircW {stroke [] 0 setdash 
  hpt 0 360 arc Opaque stroke} def
/BoxFill {gsave Rec 1 setgray fill grestore} def
/Density {
  /Fillden exch def
  currentrgbcolor
  /ColB exch def /ColG exch def /ColR exch def
  /ColR ColR Fillden mul Fillden sub 1 add def
  /ColG ColG Fillden mul Fillden sub 1 add def
  /ColB ColB Fillden mul Fillden sub 1 add def
  ColR ColG ColB setrgbcolor} def
/BoxColFill {gsave Rec PolyFill} def
/PolyFill {gsave Density fill grestore grestore} def
/h {rlineto rlineto rlineto closepath gsave fill grestore stroke} bind def
%
% PostScript Level 1 Pattern Fill routine for rectangles
% Usage: x y w h s a XX PatternFill
%	x,y = lower left corner of box to be filled
%	w,h = width and height of box
%	  a = angle in degrees between lines and x-axis
%	 XX = 0/1 for no/yes cross-hatch
%
/PatternFill {gsave /PFa [ 9 2 roll ] def
  PFa 0 get PFa 2 get 2 div add PFa 1 get PFa 3 get 2 div add translate
  PFa 2 get -2 div PFa 3 get -2 div PFa 2 get PFa 3 get Rec
  TransparentPatterns {} {gsave 1 setgray fill grestore} ifelse
  clip
  currentlinewidth 0.5 mul setlinewidth
  /PFs PFa 2 get dup mul PFa 3 get dup mul add sqrt def
  0 0 M PFa 5 get rotate PFs -2 div dup translate
  0 1 PFs PFa 4 get div 1 add floor cvi
	{PFa 4 get mul 0 M 0 PFs V} for
  0 PFa 6 get ne {
	0 1 PFs PFa 4 get div 1 add floor cvi
	{PFa 4 get mul 0 2 1 roll M PFs 0 V} for
 } if
  stroke grestore} def
%
/languagelevel where
 {pop languagelevel} {1} ifelse
dup 2 lt
	{/InterpretLevel1 true def
	 /InterpretLevel3 false def}
	{/InterpretLevel1 Level1 def
	 2 gt
	    {/InterpretLevel3 Level3 def}
	    {/InterpretLevel3 false def}
	 ifelse }
 ifelse
%
% PostScript level 2 pattern fill definitions
%
/Level2PatternFill {
/Tile8x8 {/PaintType 2 /PatternType 1 /TilingType 1 /BBox [0 0 8 8] /XStep 8 /YStep 8}
	bind def
/KeepColor {currentrgbcolor [/Pattern /DeviceRGB] setcolorspace} bind def
<< Tile8x8
 /PaintProc {0.5 setlinewidth pop 0 0 M 8 8 L 0 8 M 8 0 L stroke} 
>> matrix makepattern
/Pat1 exch def
<< Tile8x8
 /PaintProc {0.5 setlinewidth pop 0 0 M 8 8 L 0 8 M 8 0 L stroke
	0 4 M 4 8 L 8 4 L 4 0 L 0 4 L stroke}
>> matrix makepattern
/Pat2 exch def
<< Tile8x8
 /PaintProc {0.5 setlinewidth pop 0 0 M 0 8 L
	8 8 L 8 0 L 0 0 L fill}
>> matrix makepattern
/Pat3 exch def
<< Tile8x8
 /PaintProc {0.5 setlinewidth pop -4 8 M 8 -4 L
	0 12 M 12 0 L stroke}
>> matrix makepattern
/Pat4 exch def
<< Tile8x8
 /PaintProc {0.5 setlinewidth pop -4 0 M 8 12 L
	0 -4 M 12 8 L stroke}
>> matrix makepattern
/Pat5 exch def
<< Tile8x8
 /PaintProc {0.5 setlinewidth pop -2 8 M 4 -4 L
	0 12 M 8 -4 L 4 12 M 10 0 L stroke}
>> matrix makepattern
/Pat6 exch def
<< Tile8x8
 /PaintProc {0.5 setlinewidth pop -2 0 M 4 12 L
	0 -4 M 8 12 L 4 -4 M 10 8 L stroke}
>> matrix makepattern
/Pat7 exch def
<< Tile8x8
 /PaintProc {0.5 setlinewidth pop 8 -2 M -4 4 L
	12 0 M -4 8 L 12 4 M 0 10 L stroke}
>> matrix makepattern
/Pat8 exch def
<< Tile8x8
 /PaintProc {0.5 setlinewidth pop 0 -2 M 12 4 L
	-4 0 M 12 8 L -4 4 M 8 10 L stroke}
>> matrix makepattern
/Pat9 exch def
/Pattern1 {PatternBgnd KeepColor Pat1 setpattern} bind def
/Pattern2 {PatternBgnd KeepColor Pat2 setpattern} bind def
/Pattern3 {PatternBgnd KeepColor Pat3 setpattern} bind def
/Pattern4 {PatternBgnd KeepColor Landscape {Pat5} {Pat4} ifelse setpattern} bind def
/Pattern5 {PatternBgnd KeepColor Landscape {Pat4} {Pat5} ifelse setpattern} bind def
/Pattern6 {PatternBgnd KeepColor Landscape {Pat9} {Pat6} ifelse setpattern} bind def
/Pattern7 {PatternBgnd KeepColor Landscape {Pat8} {Pat7} ifelse setpattern} bind def
} def
%
%
%End of PostScript Level 2 code
%
/PatternBgnd {
  TransparentPatterns {} {gsave 1 setgray fill grestore} ifelse
} def
%
% Substitute for Level 2 pattern fill codes with
% grayscale if Level 2 support is not selected.
%
/Level1PatternFill {
/Pattern1 {0.250 Density} bind def
/Pattern2 {0.500 Density} bind def
/Pattern3 {0.750 Density} bind def
/Pattern4 {0.125 Density} bind def
/Pattern5 {0.375 Density} bind def
/Pattern6 {0.625 Density} bind def
/Pattern7 {0.875 Density} bind def
} def
%
% Now test for support of Level 2 code
%
Level1 {Level1PatternFill} {Level2PatternFill} ifelse
%
/Symbol-Oblique /Symbol findfont [1 0 .167 1 0 0] makefont
dup length dict begin {1 index /FID eq {pop pop} {def} ifelse} forall
currentdict end definefont pop
%
/Metrics {ExtendTextBox Gswidth} def
/Lwidth {currentpoint stroke M 0 vshift R Metrics} def
/Rwidth {currentpoint stroke M dup stringwidth pop neg vshift R Metrics} def
/Cwidth {currentpoint stroke M dup stringwidth pop -2 div vshift R Metrics} def
/GLwidth {currentpoint stroke M 0 vshift R {ExtendTextBox} forall} def
/GRwidth {currentpoint stroke M dup Gwidth vshift R {ExtendTextBox} forall} def
/GCwidth {currentpoint stroke M dup Gwidth 2 div vshift R {ExtendTextBox} forall} def
/GLwidth2 {0 Gwidth AddGlyphWidth} def
/GRwidth2 {Gwidth -1 mul 0 AddGlyphWidth} def
/GCwidth2 {Gwidth 2 div dup -1 mul AddGlyphWidth} def
/AddGlyphWidth { dup TBx2 gt {userdict /TBx2 3 -1 roll put} {pop} ifelse
                 dup TBx1 lt {userdict /TBx1 3 -1 roll put} {pop} ifelse } def
/MFshow {
   { dup 5 get 3 ge
     { 5 get 3 eq {gsave} {grestore} ifelse }
     {dup dup 0 get findfont exch 1 get scalefont setfont
     [ currentpoint ] exch dup 2 get 0 exch R dup 5 get 2 ne {dup dup 6
     get exch 4 get {textshow} {Metrics pop 0 R} ifelse }if dup 5 get 0 eq
     {dup 3 get {2 get neg 0 exch R pop} {pop aload pop M} ifelse} {dup 5
     get 1 eq {dup 2 get exch dup 3 get exch 6 get Gswidth pop -2 div
     dup 0 R} {dup 6 get Gswidth pop -2 div 0 R 6 get
     textshow 2 index {aload pop M neg 3 -1 roll neg R pop pop} {pop pop pop
     pop aload pop M} ifelse }ifelse }ifelse }
     ifelse }
   forall} def
/Gswidth {dup type /stringtype eq {stringwidth} {pop (n) stringwidth} ifelse} def
/MFwidth {0 exch { dup 5 get 3 ge { 5 get 3 eq { 0 } { pop } ifelse }
 {dup 3 get{dup dup 0 get findfont exch 1 get scalefont setfont
     6 get Gswidth pop add} {pop} ifelse} ifelse} forall} def
/MLshow { currentpoint stroke M
  0 exch R
  Blacktext {gsave 0 setgray MFshow grestore} {MFshow} ifelse } bind def
/MRshow { currentpoint stroke M
  exch dup MFwidth neg 3 -1 roll R
  Blacktext {gsave 0 setgray MFshow grestore} {MFshow} ifelse } bind def
/MCshow { currentpoint stroke M
  exch dup MFwidth -2 div 3 -1 roll R
  Blacktext {gsave 0 setgray MFshow grestore} {MFshow} ifelse } bind def
/XYsave    { [( ) 1 2 true false 3 ()] } bind def
/XYrestore { [( ) 1 2 true false 4 ()] } bind def
Level1 SuppressPDFMark or 
{} {
/SDict 10 dict def
systemdict /pdfmark known not {
  userdict /pdfmark systemdict /cleartomark get put
} if
SDict begin [
  /Title (phonon_dispersion.eps)
  /Subject (gnuplot plot)
  /Creator (gnuplot 5.4 patchlevel 2)
%  /Producer (gnuplot)
%  /Keywords ()
  /CreationDate (Wed Jun 19 16:32:49 2024)
  /DOCINFO pdfmark
end
} ifelse
%
% Support for boxed text - Ethan A Merritt Sep 2016
%
/InitTextBox { userdict /TBy2 3 -1 roll put userdict /TBx2 3 -1 roll put
           userdict /TBy1 3 -1 roll put userdict /TBx1 3 -1 roll put
	   /Boxing true def } def
/ExtendTextBox { dup type /stringtype eq
    { Boxing { gsave dup false charpath pathbbox
      dup TBy2 gt {userdict /TBy2 3 -1 roll put} {pop} ifelse
      dup TBx2 gt {userdict /TBx2 3 -1 roll put} {pop} ifelse
      dup TBy1 lt {userdict /TBy1 3 -1 roll put} {pop} ifelse
      dup TBx1 lt {userdict /TBx1 3 -1 roll put} {pop} ifelse
      grestore } if }
    {} ifelse} def
/PopTextBox { newpath TBx1 TBxmargin sub TBy1 TBymargin sub M
               TBx1 TBxmargin sub TBy2 TBymargin add L
	       TBx2 TBxmargin add TBy2 TBymargin add L
	       TBx2 TBxmargin add TBy1 TBymargin sub L closepath } def
/DrawTextBox { PL PopTextBox stroke /Boxing false def} def
/FillTextBox { gsave PopTextBox fill grestore /Boxing false def} def
0 0 0 0 InitTextBox
/TBxmargin 20 def
/TBymargin 20 def
/Boxing false def
/textshow { ExtendTextBox Gshow } def
%
end
%%EndProlog
%%Page: 1 1
gnudict begin
gsave
doclip
50 50 translate
0.050 0.050 scale
0 setgray
newpath
(Helvetica) findfont 200 scalefont setfont
BackgroundColor 0 lt 3 1 roll 0 lt exch 0 lt or or not {BackgroundColor C 1.000 0 0 7200.00 5040.00 BoxColFill} if
1.000 UL
LTb
LCb setrgbcolor
980 240 M
63 0 V
5796 0 R
-63 0 V
stroke
860 240 M
[ [(Helvetica) 200.0 0.0 true true 0 ( 0)]
] -66.7 MRshow
/Helvetica findfont 200 scalefont setfont
/vshift -66 def
1.000 UL
LTb
LCb setrgbcolor
980 751 M
63 0 V
5796 0 R
-63 0 V
stroke
860 751 M
[ [(Helvetica) 200.0 0.0 true true 0 ( 50)]
] -66.7 MRshow
/Helvetica findfont 200 scalefont setfont
1.000 UL
LTb
LCb setrgbcolor
980 1262 M
63 0 V
5796 0 R
-63 0 V
stroke
860 1262 M
[ [(Helvetica) 200.0 0.0 true true 0 ( 100)]
] -66.7 MRshow
/Helvetica findfont 200 scalefont setfont
1.000 UL
LTb
LCb setrgbcolor
980 1773 M
63 0 V
5796 0 R
-63 0 V
stroke
860 1773 M
[ [(Helvetica) 200.0 0.0 true true 0 ( 150)]
] -66.7 MRshow
/Helvetica findfont 200 scalefont setfont
1.000 UL
LTb
LCb setrgbcolor
980 2284 M
63 0 V
5796 0 R
-63 0 V
stroke
860 2284 M
[ [(Helvetica) 200.0 0.0 true true 0 ( 200)]
] -66.7 MRshow
/Helvetica findfont 200 scalefont setfont
1.000 UL
LTb
LCb setrgbcolor
980 2795 M
63 0 V
5796 0 R
-63 0 V
stroke
860 2795 M
[ [(Helvetica) 200.0 0.0 true true 0 ( 250)]
] -66.7 MRshow
/Helvetica findfont 200 scalefont setfont
1.000 UL
LTb
LCb setrgbcolor
980 3306 M
63 0 V
5796 0 R
-63 0 V
stroke
860 3306 M
[ [(Helvetica) 200.0 0.0 true true 0 ( 300)]
] -66.7 MRshow
/Helvetica findfont 200 scalefont setfont
1.000 UL
LTb
LCb setrgbcolor
980 3817 M
63 0 V
5796 0 R
-63 0 V
stroke
860 3817 M
[ [(Helvetica) 200.0 0.0 true true 0 ( 350)]
] -66.7 MRshow
/Helvetica findfont 200 scalefont setfont
1.000 UL
LTb
LCb setrgbcolor
980 4328 M
63 0 V
5796 0 R
-63 0 V
stroke
860 4328 M
[ [(Helvetica) 200.0 0.0 true true 0 ( 400)]
] -66.7 MRshow
/Helvetica findfont 200 scalefont setfont
1.000 UL
LTb
LCb setrgbcolor
980 4839 M
63 0 V
5796 0 R
-63 0 V
stroke
860 4839 M
[ [(Helvetica) 200.0 0.0 true true 0 ( 450)]
] -66.7 MRshow
/Helvetica findfont 200 scalefont setfont
1.000 UL
LTb
LCb setrgbcolor
1.000 UL
LTB
LCb setrgbcolor
980 4839 N
980 240 L
5859 0 V
0 4599 V
-5859 0 V
Z stroke
1.000 UP
LCb setrgbcolor
912 87 M
[ [(Symbol) 200.0 0.0 true true 0 (G)]
] -66.7 MLshow
/Helvetica findfont 200 scalefont setfont
LCb setrgbcolor
2280 87 M
[ [(Helvetica) 200.0 0.0 true true 0 (X)]
] -66.7 MLshow
/Helvetica findfont 200 scalefont setfont
LCb setrgbcolor
2965 87 M
[ [(Helvetica) 200.0 0.0 true true 0 (W)]
] -66.7 MLshow
/Helvetica findfont 200 scalefont setfont
LCb setrgbcolor
3649 87 M
[ [(Helvetica) 200.0 0.0 true true 0 (X)]
] -66.7 MLshow
/Helvetica findfont 200 scalefont setfont
LCb setrgbcolor
5593 87 M
[ [(Symbol) 200.0 0.0 true true 0 (G)]
] -66.7 MLshow
/Helvetica findfont 200 scalefont setfont
LCb setrgbcolor
6715 87 M
[ [(Helvetica) 200.0 0.0 true true 0 (L)]
] -66.7 MLshow
/Helvetica findfont 200 scalefont setfont
3.000 UL
[] 0 setdash
PL LCb setrgbcolor
2350 241 M
0 4599 V
stroke
[] 0 setdash
LCb setrgbcolor
3719 241 M
0 4599 V
stroke
[] 0 setdash
LCb setrgbcolor
3034 241 M
0 4599 V
stroke
[] 0 setdash
LCb setrgbcolor
5655 241 M
0 4292 V
stroke
1.000 UL
LTb
LCb setrgbcolor
LCb setrgbcolor
190 2539 M
currentpoint gsave translate -270 rotate 0 0 moveto
[ [(Symbol) 200.0 0.0 true true 0 (w)]
[(Helvetica) 200.0 0.0 true true 0 ( \(cm)]
[(Helvetica) 160.0 100.0 true true 0 (-1)]
[(Helvetica) 200.0 0.0 true true 0 (\))]
] -86.7 MCshow
grestore
/Helvetica findfont 200 scalefont setfont
LTb
% Begin plot #1
2.000 UL
LTb
0.58 0.00 0.83 C
LCb setrgbcolor
5936 4676 M
[ [(Helvetica) 200.0 0.0 true true 0 (q-grid: 4x4x4)]
] -66.7 MRshow
/Helvetica findfont 200 scalefont setfont
2.000 UL
LTb
0.58 0.00 0.83 C
6056 4676 M
543 0 V
980 240 M
34 49 V
34 49 V
35 49 V
34 49 V
34 48 V
34 47 V
35 47 V
34 46 V
34 45 V
34 43 V
34 43 V
35 41 V
34 40 V
34 38 V
34 36 V
35 35 V
34 32 V
34 31 V
34 28 V
34 26 V
35 24 V
34 22 V
34 19 V
34 17 V
35 14 V
34 13 V
34 10 V
34 8 V
34 7 V
35 5 V
34 3 V
34 3 V
34 1 V
35 1 V
34 0 V
34 0 V
34 0 V
34 0 V
35 -1 V
34 0 V
34 2 V
34 5 V
35 7 V
34 11 V
34 14 V
34 16 V
34 18 V
35 20 V
34 22 V
34 23 V
34 24 V
35 24 V
34 24 V
34 22 V
34 21 V
34 19 V
35 15 V
34 11 V
34 7 V
34 3 V
34 -3 V
35 -7 V
34 -11 V
34 -15 V
34 -19 V
35 -21 V
34 -22 V
34 -24 V
34 -24 V
34 -24 V
35 -23 V
34 -22 V
34 -20 V
34 -18 V
35 -16 V
34 -14 V
34 -11 V
34 -7 V
34 -5 V
35 -2 V
48 1 V
48 0 V
49 1 V
48 0 V
49 1 V
48 1 V
48 0 V
49 0 V
48 -1 V
49 -2 V
48 -3 V
49 -4 V
48 -6 V
48 -7 V
49 -10 V
48 -11 V
48 -15 V
49 -16 V
48 -20 V
49 -22 V
48 -26 V
48 -28 V
49 -30 V
48 -34 V
49 -36 V
48 -38 V
48 -41 V
49 -42 V
48 -44 V
49 -46 V
48 -46 V
48 -48 V
49 -49 V
48 -49 V
49 -49 V
48 -49 V
48 -50 V
49 -50 V
48 -50 V
49 -50 V
29 35 V
30 35 V
29 35 V
30 35 V
30 34 V
29 34 V
30 34 V
30 33 V
29 33 V
30 31 V
30 32 V
29 30 V
30 29 V
29 28 V
30 27 V
30 25 V
29 24 V
30 23 V
30 20 V
29 19 V
30 18 V
30 15 V
29 14 V
30 12 V
29 10 V
30 8 V
30 6 V
29 5 V
30 4 V
30 2 V
29 1 V
30 1 V
30 -1 V
29 -1 V
30 -1 V
29 -1 V
30 -1 V
30 -1 V
29 -1 V
30 0 V
980 240 M
34 49 V
34 49 V
35 49 V
34 49 V
34 48 V
34 47 V
35 47 V
34 46 V
34 45 V
34 43 V
34 43 V
35 41 V
34 40 V
34 38 V
34 36 V
35 35 V
34 32 V
34 31 V
34 28 V
34 26 V
35 24 V
34 22 V
34 19 V
34 17 V
35 14 V
34 13 V
34 10 V
34 8 V
34 7 V
35 5 V
34 3 V
34 3 V
34 1 V
35 1 V
34 0 V
34 0 V
34 0 V
34 0 V
35 -1 V
34 0 V
34 3 V
34 7 V
35 12 V
34 16 V
34 20 V
34 24 V
34 26 V
35 29 V
34 30 V
34 31 V
34 31 V
35 30 V
34 29 V
34 27 V
34 24 V
34 21 V
35 17 V
34 12 V
34 8 V
34 2 V
34 -2 V
35 -8 V
34 -12 V
34 -17 V
34 -21 V
35 -24 V
34 -27 V
34 -29 V
34 -30 V
34 -31 V
35 -31 V
34 -30 V
34 -29 V
34 -26 V
35 -24 V
34 -20 V
34 -16 V
34 -12 V
34 -7 V
35 -3 V
48 8 V
48 23 V
49 36 V
48 45 V
49 52 V
48 55 V
stroke 4008 1427 M
48 54 V
49 51 V
48 45 V
49 36 V
48 28 V
49 17 V
48 8 V
48 -1 V
49 -8 V
48 -14 V
48 -19 V
49 -24 V
48 -27 V
49 -30 V
48 -35 V
48 -39 V
49 -44 V
48 -48 V
49 -53 V
48 -58 V
48 -61 V
49 -66 V
48 -69 V
49 -72 V
48 -74 V
48 -76 V
49 -76 V
48 -77 V
49 -77 V
48 -77 V
48 -76 V
49 -75 V
48 -75 V
49 -75 V
29 35 V
30 35 V
29 35 V
30 35 V
30 34 V
29 34 V
30 34 V
30 33 V
29 33 V
30 31 V
30 32 V
29 30 V
30 29 V
29 28 V
30 27 V
30 25 V
29 24 V
30 23 V
30 20 V
29 19 V
30 18 V
30 15 V
29 14 V
30 12 V
29 10 V
30 8 V
30 6 V
29 5 V
30 4 V
30 2 V
29 1 V
30 1 V
30 -1 V
29 -1 V
30 -1 V
29 -1 V
30 -1 V
30 -1 V
29 -1 V
30 0 V
980 240 M
34 90 V
34 90 V
35 89 V
34 89 V
34 87 V
34 87 V
35 86 V
34 84 V
34 82 V
34 81 V
34 79 V
35 78 V
34 75 V
34 74 V
34 71 V
35 70 V
34 67 V
34 66 V
34 63 V
34 61 V
35 60 V
34 56 V
34 55 V
34 52 V
35 50 V
34 48 V
34 45 V
34 42 V
34 40 V
35 36 V
34 34 V
34 31 V
34 27 V
35 24 V
34 21 V
34 17 V
34 13 V
34 10 V
35 5 V
34 2 V
34 -1 V
34 -3 V
35 -5 V
34 -6 V
34 -9 V
34 -10 V
34 -12 V
35 -13 V
34 -15 V
34 -15 V
34 -16 V
35 -16 V
34 -16 V
34 -15 V
34 -14 V
34 -13 V
35 -11 V
34 -8 V
34 -5 V
34 -2 V
34 2 V
35 5 V
34 8 V
34 11 V
34 13 V
35 14 V
34 15 V
34 16 V
34 16 V
34 16 V
35 15 V
34 15 V
34 13 V
34 12 V
35 10 V
34 9 V
34 6 V
34 5 V
34 3 V
35 1 V
48 -2 V
48 -5 V
49 -10 V
48 -13 V
49 -16 V
48 -18 V
48 -19 V
49 -20 V
48 -19 V
49 -19 V
48 -18 V
49 -17 V
48 -17 V
48 -18 V
49 -20 V
48 -23 V
48 -27 V
49 -31 V
48 -36 V
49 -40 V
48 -44 V
48 -49 V
49 -53 V
48 -57 V
49 -61 V
48 -67 V
48 -71 V
49 -77 V
48 -83 V
49 -89 V
48 -95 V
48 -102 V
49 -108 V
48 -115 V
49 -120 V
48 -125 V
48 -129 V
49 -133 V
48 -135 V
49 -136 V
29 87 V
30 87 V
29 87 V
30 87 V
30 85 V
29 85 V
30 84 V
30 82 V
29 81 V
30 80 V
30 79 V
29 76 V
30 75 V
29 73 V
30 71 V
30 70 V
29 67 V
30 65 V
30 63 V
29 61 V
30 59 V
30 56 V
29 54 V
30 52 V
29 50 V
30 47 V
30 45 V
29 42 V
30 40 V
30 37 V
29 33 V
30 31 V
30 28 V
29 25 V
30 20 V
29 18 V
30 14 V
30 9 V
29 6 V
30 2 V
980 4078 M
34 -1 V
34 -1 V
35 -3 V
34 -4 V
34 -5 V
34 -6 V
35 -7 V
34 -9 V
34 -10 V
34 -11 V
34 -12 V
35 -12 V
34 -14 V
stroke 1425 3983 M
34 -15 V
34 -15 V
35 -16 V
34 -15 V
34 -16 V
34 -15 V
34 -15 V
35 -14 V
34 -13 V
34 -12 V
34 -10 V
35 -9 V
34 -8 V
34 -6 V
34 -4 V
34 -4 V
35 -2 V
34 -1 V
34 0 V
34 1 V
35 0 V
34 2 V
34 1 V
34 1 V
34 1 V
35 0 V
34 1 V
34 -1 V
34 0 V
35 -2 V
34 -1 V
34 -2 V
34 -2 V
34 -2 V
35 -2 V
34 -1 V
34 0 V
34 0 V
35 2 V
34 4 V
34 5 V
34 8 V
34 10 V
35 12 V
34 3 V
34 0 V
34 1 V
34 -1 V
35 0 V
34 -3 V
34 -12 V
34 -10 V
35 -8 V
34 -5 V
34 -4 V
34 -2 V
34 0 V
35 0 V
34 1 V
34 2 V
34 2 V
35 2 V
34 2 V
34 1 V
34 2 V
34 0 V
35 1 V
48 -1 V
48 0 V
49 -1 V
48 -2 V
49 -3 V
48 -4 V
48 -5 V
49 -6 V
48 -7 V
49 -6 V
48 -6 V
49 -4 V
48 0 V
48 5 V
49 9 V
48 16 V
48 22 V
49 26 V
48 30 V
49 31 V
48 17 V
48 12 V
49 11 V
48 12 V
49 12 V
48 12 V
48 12 V
49 12 V
48 11 V
49 11 V
48 8 V
48 7 V
49 8 V
48 8 V
49 8 V
48 7 V
48 7 V
49 4 V
48 4 V
49 1 V
29 -1 V
30 -1 V
29 -1 V
30 -2 V
30 -3 V
29 -3 V
30 -4 V
30 -4 V
29 -5 V
30 -5 V
30 -5 V
29 -6 V
30 -6 V
29 -6 V
30 -6 V
30 -6 V
29 -6 V
30 -6 V
30 -6 V
29 -5 V
30 -5 V
30 -4 V
29 -4 V
30 -3 V
29 -3 V
30 -2 V
30 -2 V
29 -1 V
30 -1 V
30 0 V
29 0 V
30 0 V
30 0 V
29 1 V
30 0 V
29 1 V
30 1 V
30 0 V
29 0 V
30 0 V
980 4078 M
34 -1 V
34 -1 V
35 -3 V
34 -4 V
34 -5 V
34 -6 V
35 -7 V
34 -9 V
34 -10 V
34 -11 V
34 -12 V
35 -12 V
34 -14 V
34 -15 V
34 -15 V
35 -16 V
34 -15 V
34 -16 V
34 -15 V
34 -15 V
35 -14 V
34 -13 V
34 -12 V
34 -10 V
35 -9 V
34 -8 V
34 -6 V
34 -4 V
34 -4 V
35 -2 V
34 -1 V
34 0 V
34 1 V
35 0 V
34 2 V
34 1 V
34 1 V
34 1 V
35 0 V
34 1 V
34 0 V
34 1 V
35 1 V
34 1 V
34 2 V
34 2 V
34 2 V
35 3 V
34 2 V
34 3 V
34 2 V
35 3 V
34 2 V
34 2 V
34 2 V
34 1 V
35 1 V
34 13 V
34 15 V
34 10 V
34 -10 V
35 -15 V
34 -13 V
34 -1 V
34 -1 V
35 -2 V
34 -2 V
34 -2 V
34 -3 V
34 -2 V
35 -3 V
34 -2 V
34 -3 V
34 -2 V
35 -2 V
34 -2 V
34 -1 V
34 -1 V
34 -1 V
35 0 V
48 0 V
48 0 V
49 1 V
48 1 V
49 2 V
48 2 V
48 2 V
49 3 V
48 4 V
49 4 V
48 5 V
49 6 V
48 7 V
48 7 V
49 8 V
48 8 V
48 9 V
49 10 V
48 10 V
49 11 V
48 24 V
stroke 4734 3924 M
48 27 V
49 20 V
48 14 V
49 9 V
48 7 V
48 4 V
49 4 V
48 5 V
49 5 V
48 8 V
48 10 V
49 9 V
48 8 V
49 7 V
48 6 V
48 4 V
49 4 V
48 2 V
49 1 V
29 -1 V
30 -1 V
29 -1 V
30 -2 V
30 -3 V
29 -3 V
30 -4 V
30 -4 V
29 -5 V
30 -5 V
30 -5 V
29 -6 V
30 -6 V
29 -6 V
30 -6 V
30 -6 V
29 -6 V
30 -6 V
30 -6 V
29 -5 V
30 -5 V
30 -4 V
29 -4 V
30 -3 V
29 -3 V
30 -2 V
30 -2 V
29 -1 V
30 -1 V
30 0 V
29 0 V
30 0 V
30 0 V
29 1 V
30 0 V
29 1 V
30 1 V
30 0 V
29 0 V
30 0 V
980 4436 M
34 0 V
34 1 V
35 1 V
34 2 V
34 2 V
34 3 V
35 2 V
34 3 V
34 3 V
34 2 V
34 2 V
35 2 V
34 2 V
34 1 V
34 0 V
35 0 V
34 0 V
34 -1 V
34 -2 V
34 -2 V
35 -2 V
34 -3 V
34 -4 V
34 -3 V
35 -4 V
34 -4 V
34 -3 V
34 -4 V
34 -4 V
35 -4 V
34 -3 V
34 -4 V
34 -3 V
35 -3 V
34 -2 V
34 -2 V
34 -2 V
34 -1 V
35 -1 V
34 0 V
34 -2 V
34 -7 V
35 -10 V
34 -14 V
34 -18 V
34 -22 V
34 -24 V
35 -28 V
34 -30 V
34 -33 V
34 -34 V
35 -35 V
34 -35 V
34 -36 V
34 -35 V
34 -33 V
35 -32 V
34 -29 V
34 -24 V
34 -12 V
34 12 V
35 24 V
34 29 V
34 32 V
34 33 V
35 35 V
34 36 V
34 35 V
34 35 V
34 34 V
35 33 V
34 30 V
34 28 V
34 24 V
35 22 V
34 18 V
34 14 V
34 10 V
34 7 V
35 2 V
48 -4 V
48 -13 V
49 -19 V
48 -26 V
49 -31 V
48 -35 V
48 -36 V
49 -35 V
48 -33 V
49 -29 V
48 -24 V
49 -19 V
48 -14 V
48 -9 V
49 -5 V
48 -2 V
48 2 V
49 5 V
48 8 V
49 11 V
48 15 V
48 21 V
49 27 V
48 33 V
49 36 V
48 36 V
48 35 V
49 31 V
48 28 V
49 24 V
48 19 V
48 14 V
49 10 V
48 7 V
49 4 V
48 2 V
48 1 V
49 0 V
48 0 V
49 0 V
29 0 V
30 0 V
29 0 V
30 0 V
30 -1 V
29 0 V
30 -1 V
30 -1 V
29 -1 V
30 -2 V
30 -2 V
29 -3 V
30 -3 V
29 -4 V
30 -5 V
30 -5 V
29 -7 V
30 -7 V
30 -8 V
29 -9 V
30 -10 V
30 -10 V
29 -11 V
30 -12 V
29 -13 V
30 -12 V
30 -14 V
29 -13 V
30 -13 V
30 -13 V
29 -13 V
30 -12 V
30 -12 V
29 -10 V
30 -9 V
29 -8 V
30 -6 V
30 -5 V
29 -3 V
30 -1 V
% End plot #1
stroke
LTb
LCb setrgbcolor
1.000 UL
LTB
LCb setrgbcolor
980 4839 N
980 240 L
5859 0 V
0 4599 V
-5859 0 V
Z stroke
1.000 UP
1.000 UL
LTb
LCb setrgbcolor
stroke
grestore
end
showpage
%%Trailer
%%DocumentFonts: Symbol Helvetica
