
     Program MATDYN v.7.1 starts on 18Jun2024 at 22:34:24 

     This program is part of the open-source Quantum ESPRESSO suite
     for quantum simulation of materials; please cite
         "P. Giannozzi et al., J. Phys.:Condens. Matter 21 395502 (2009);
         "P. Giannozzi et al., J. Phys.:Condens. Matter 29 465901 (2017);
         "P. Giannozzi et al., J. Chem. Phys. 152 154105 (2020);
          URL http://www.quantum-espresso.org", 
     in publications or presentations arising from this work. More details at
     http://www.quantum-espresso.org/quote

     Parallel version (MPI & OpenMP), running on       1 processor cores
     Number of MPI processes:                 1
     Threads/MPI process:                     1

     MPI processes distributed on     1 nodes
     184400 MiB available memory on the printing compute node when the environment starts
 
 mass for atomic type   1 not given; uses mass from file bn881.fc                                                                                                                                                                                                                                                        
 mass for atomic type   2 not given; uses mass from file bn881.fc                                                                                                                                                                                                                                                        
 
     MATDYN       :      0.02s CPU      0.05s WALL

 
   This run was terminated on:  22:34:25  18Jun2024            

=------------------------------------------------------------------------------=
   JOB DONE.
=------------------------------------------------------------------------------=
